vds	Id(M1)
Step Information: Vgs=0  (Run: 1/10)
0.000000000000000e+000	0.000000e+000
1.000000000000000e-002	3.978363e-013
2.000000000000000e-002	6.560576e-013
3.000000000000000e-002	8.108920e-013
4.000000000000000e-002	9.005230e-013
5.000000000000000e-002	9.540445e-013
6.000000000000001e-002	9.887149e-013
7.000000000000001e-002	1.013496e-012
8.000000000000000e-002	1.032881e-012
9.000000000000000e-002	1.049168e-012
9.999999999999999e-002	1.063585e-012
1.100000000000000e-001	1.076820e-012
1.200000000000000e-001	1.089278e-012
1.300000000000000e-001	1.101208e-012
1.400000000000000e-001	1.112766e-012
1.500000000000000e-001	1.124058e-012
1.600000000000000e-001	1.135152e-012
1.700000000000000e-001	1.146099e-012
1.800000000000000e-001	1.156933e-012
1.900000000000000e-001	1.167678e-012
2.000000000000000e-001	1.178355e-012
2.100000000000001e-001	1.188976e-012
2.200000000000001e-001	1.199552e-012
2.300000000000001e-001	1.210092e-012
2.400000000000001e-001	1.220601e-012
2.500000000000001e-001	1.231085e-012
2.600000000000001e-001	1.241549e-012
2.700000000000001e-001	1.251994e-012
2.800000000000001e-001	1.262425e-012
2.900000000000001e-001	1.272842e-012
3.000000000000001e-001	1.283248e-012
3.100000000000001e-001	1.293645e-012
3.200000000000001e-001	1.304033e-012
3.300000000000001e-001	1.314414e-012
3.400000000000001e-001	1.324788e-012
3.500000000000001e-001	1.335157e-012
3.600000000000002e-001	1.345520e-012
3.700000000000002e-001	1.355879e-012
3.800000000000002e-001	1.366234e-012
3.900000000000002e-001	1.376586e-012
4.000000000000002e-001	1.386934e-012
4.100000000000002e-001	1.397280e-012
4.200000000000002e-001	1.407623e-012
4.300000000000002e-001	1.417963e-012
4.400000000000002e-001	1.428302e-012
4.500000000000002e-001	1.438638e-012
4.600000000000002e-001	1.448973e-012
4.700000000000003e-001	1.459306e-012
4.800000000000003e-001	1.469638e-012
4.900000000000003e-001	1.479968e-012
5.000000000000002e-001	1.490297e-012
5.100000000000002e-001	1.500625e-012
5.200000000000002e-001	1.510952e-012
5.300000000000003e-001	1.521278e-012
5.400000000000003e-001	1.531603e-012
5.500000000000003e-001	1.541927e-012
5.600000000000003e-001	1.552251e-012
5.700000000000003e-001	1.562574e-012
5.800000000000003e-001	1.572896e-012
5.900000000000003e-001	1.583217e-012
6.000000000000003e-001	1.593538e-012
6.100000000000003e-001	1.603859e-012
6.200000000000003e-001	1.614179e-012
6.300000000000003e-001	1.624498e-012
6.400000000000004e-001	1.634818e-012
6.500000000000004e-001	1.645136e-012
6.600000000000004e-001	1.655455e-012
6.700000000000004e-001	1.665773e-012
6.800000000000004e-001	1.676091e-012
6.900000000000004e-001	1.686408e-012
7.000000000000004e-001	1.696725e-012
7.100000000000004e-001	1.707042e-012
7.200000000000004e-001	1.717359e-012
7.300000000000004e-001	1.727675e-012
7.400000000000004e-001	1.737991e-012
7.500000000000004e-001	1.748307e-012
7.600000000000005e-001	1.758623e-012
7.700000000000005e-001	1.768939e-012
7.800000000000005e-001	1.779254e-012
7.900000000000005e-001	1.789569e-012
8.000000000000005e-001	1.799885e-012
8.100000000000005e-001	1.810200e-012
8.200000000000005e-001	1.820514e-012
8.300000000000005e-001	1.830829e-012
8.400000000000005e-001	1.841144e-012
8.500000000000005e-001	1.851458e-012
8.600000000000005e-001	1.861773e-012
8.700000000000006e-001	1.872087e-012
8.800000000000006e-001	1.882401e-012
8.900000000000006e-001	1.892715e-012
9.000000000000006e-001	1.903029e-012
9.100000000000006e-001	1.913343e-012
9.200000000000006e-001	1.923657e-012
9.300000000000006e-001	1.933971e-012
9.400000000000006e-001	1.944285e-012
9.500000000000006e-001	1.954599e-012
9.600000000000006e-001	1.964912e-012
9.700000000000006e-001	1.975226e-012
9.800000000000007e-001	1.985540e-012
9.900000000000007e-001	1.995853e-012
1.000000000000001e+000	2.006167e-012
1.010000000000001e+000	2.016480e-012
1.020000000000001e+000	2.026793e-012
1.030000000000001e+000	2.037107e-012
1.040000000000001e+000	2.047420e-012
1.050000000000001e+000	2.057734e-012
1.060000000000001e+000	2.068047e-012
1.070000000000001e+000	2.078360e-012
1.080000000000001e+000	2.088673e-012
1.090000000000001e+000	2.098987e-012
1.100000000000001e+000	2.109300e-012
1.110000000000001e+000	2.119613e-012
1.120000000000001e+000	2.129926e-012
1.130000000000001e+000	2.140240e-012
1.140000000000001e+000	2.150553e-012
1.150000000000001e+000	2.160866e-012
1.160000000000001e+000	2.171179e-012
1.170000000000001e+000	2.181492e-012
1.180000000000001e+000	2.191805e-012
1.190000000000001e+000	2.202118e-012
1.200000000000001e+000	2.212432e-012
1.210000000000001e+000	2.222745e-012
1.220000000000001e+000	2.233058e-012
1.230000000000001e+000	2.243371e-012
1.240000000000001e+000	2.253684e-012
1.250000000000001e+000	2.263997e-012
1.260000000000001e+000	2.274310e-012
1.270000000000001e+000	2.284623e-012
1.280000000000001e+000	2.294937e-012
1.290000000000001e+000	2.305250e-012
1.300000000000001e+000	2.315563e-012
1.310000000000001e+000	2.325876e-012
1.320000000000001e+000	2.336189e-012
1.330000000000001e+000	2.346503e-012
1.340000000000001e+000	2.356816e-012
1.350000000000001e+000	2.367129e-012
1.360000000000001e+000	2.377442e-012
1.370000000000001e+000	2.387755e-012
1.380000000000001e+000	2.398069e-012
1.390000000000001e+000	2.408382e-012
1.400000000000001e+000	2.418695e-012
1.410000000000001e+000	2.429008e-012
1.420000000000001e+000	2.439322e-012
1.430000000000001e+000	2.449635e-012
1.440000000000001e+000	2.459948e-012
1.450000000000001e+000	2.470262e-012
1.460000000000001e+000	2.480575e-012
1.470000000000001e+000	2.490888e-012
1.480000000000001e+000	2.501202e-012
1.490000000000001e+000	2.511515e-012
1.500000000000001e+000	2.521829e-012
1.510000000000001e+000	2.532142e-012
1.520000000000001e+000	2.542455e-012
1.530000000000001e+000	2.552769e-012
1.540000000000001e+000	2.563083e-012
1.550000000000001e+000	2.573396e-012
1.560000000000001e+000	2.583710e-012
1.570000000000001e+000	2.594023e-012
1.580000000000001e+000	2.604337e-012
1.590000000000001e+000	2.614650e-012
1.600000000000001e+000	2.624964e-012
1.610000000000001e+000	2.635278e-012
1.620000000000001e+000	2.645591e-012
1.630000000000001e+000	2.655905e-012
1.640000000000001e+000	2.666219e-012
1.650000000000001e+000	2.676532e-012
1.660000000000001e+000	2.686846e-012
1.670000000000001e+000	2.697160e-012
1.680000000000001e+000	2.707474e-012
1.690000000000001e+000	2.717788e-012
1.700000000000001e+000	2.728102e-012
1.710000000000001e+000	2.738415e-012
1.720000000000001e+000	2.748729e-012
1.730000000000001e+000	2.759043e-012
1.740000000000001e+000	2.769357e-012
1.750000000000001e+000	2.779671e-012
1.760000000000001e+000	2.789985e-012
1.770000000000001e+000	2.800299e-012
1.780000000000001e+000	2.810613e-012
1.790000000000001e+000	2.820927e-012
1.800000000000000e+000	2.831242e-012
Step Information: Vgs=200m  (Run: 2/10)
0.000000000000000e+000	0.000000e+000
1.000000000000000e-002	8.896398e-011
2.000000000000000e-002	1.461359e-010
3.000000000000000e-002	1.796179e-010
4.000000000000000e-002	1.980609e-010
5.000000000000000e-002	2.081364e-010
6.000000000000001e-002	2.138376e-010
7.000000000000001e-002	2.172475e-010
8.000000000000000e-002	2.194112e-010
9.000000000000000e-002	2.208620e-010
9.999999999999999e-002	2.218839e-010
1.100000000000000e-001	2.226355e-010
1.200000000000000e-001	2.232096e-010
1.300000000000000e-001	2.236630e-010
1.400000000000000e-001	2.240316e-010
1.500000000000000e-001	2.243392e-010
1.600000000000000e-001	2.246018e-010
1.700000000000000e-001	2.248304e-010
1.800000000000000e-001	2.250330e-010
1.900000000000000e-001	2.252154e-010
2.000000000000000e-001	2.253818e-010
2.100000000000001e-001	2.255354e-010
2.200000000000001e-001	2.256786e-010
2.300000000000001e-001	2.258133e-010
2.400000000000001e-001	2.259410e-010
2.500000000000001e-001	2.260629e-010
2.600000000000001e-001	2.261798e-010
2.700000000000001e-001	2.262927e-010
2.800000000000001e-001	2.264020e-010
2.900000000000001e-001	2.265082e-010
3.000000000000001e-001	2.266119e-010
3.100000000000001e-001	2.267133e-010
3.200000000000001e-001	2.268128e-010
3.300000000000001e-001	2.269105e-010
3.400000000000001e-001	2.270067e-010
3.500000000000001e-001	2.271016e-010
3.600000000000002e-001	2.271953e-010
3.700000000000002e-001	2.272880e-010
3.800000000000002e-001	2.273797e-010
3.900000000000002e-001	2.274707e-010
4.000000000000002e-001	2.275608e-010
4.100000000000002e-001	2.276503e-010
4.200000000000002e-001	2.277392e-010
4.300000000000002e-001	2.278275e-010
4.400000000000002e-001	2.279154e-010
4.500000000000002e-001	2.280027e-010
4.600000000000002e-001	2.280897e-010
4.700000000000003e-001	2.281763e-010
4.800000000000003e-001	2.282626e-010
4.900000000000003e-001	2.283485e-010
5.000000000000002e-001	2.284342e-010
5.100000000000002e-001	2.285196e-010
5.200000000000002e-001	2.286047e-010
5.300000000000003e-001	2.286897e-010
5.400000000000003e-001	2.287744e-010
5.500000000000003e-001	2.288589e-010
5.600000000000003e-001	2.289433e-010
5.700000000000003e-001	2.290275e-010
5.800000000000003e-001	2.291115e-010
5.900000000000003e-001	2.291955e-010
6.000000000000003e-001	2.292792e-010
6.100000000000003e-001	2.293629e-010
6.200000000000003e-001	2.294464e-010
6.300000000000003e-001	2.295299e-010
6.400000000000004e-001	2.296132e-010
6.500000000000004e-001	2.296964e-010
6.600000000000004e-001	2.297796e-010
6.700000000000004e-001	2.298627e-010
6.800000000000004e-001	2.299457e-010
6.900000000000004e-001	2.300286e-010
7.000000000000004e-001	2.301115e-010
7.100000000000004e-001	2.301943e-010
7.200000000000004e-001	2.302770e-010
7.300000000000004e-001	2.303597e-010
7.400000000000004e-001	2.304424e-010
7.500000000000004e-001	2.305250e-010
7.600000000000005e-001	2.306075e-010
7.700000000000005e-001	2.306900e-010
7.800000000000005e-001	2.307725e-010
7.900000000000005e-001	2.308549e-010
8.000000000000005e-001	2.309373e-010
8.100000000000005e-001	2.310197e-010
8.200000000000005e-001	2.311020e-010
8.300000000000005e-001	2.311843e-010
8.400000000000005e-001	2.312666e-010
8.500000000000005e-001	2.313488e-010
8.600000000000005e-001	2.314310e-010
8.700000000000006e-001	2.315132e-010
8.800000000000006e-001	2.315954e-010
8.900000000000006e-001	2.316776e-010
9.000000000000006e-001	2.317597e-010
9.100000000000006e-001	2.318418e-010
9.200000000000006e-001	2.319239e-010
9.300000000000006e-001	2.320060e-010
9.400000000000006e-001	2.320881e-010
9.500000000000006e-001	2.321701e-010
9.600000000000006e-001	2.322522e-010
9.700000000000006e-001	2.323342e-010
9.800000000000007e-001	2.324162e-010
9.900000000000007e-001	2.324982e-010
1.000000000000001e+000	2.325802e-010
1.010000000000001e+000	2.326622e-010
1.020000000000001e+000	2.327442e-010
1.030000000000001e+000	2.328262e-010
1.040000000000001e+000	2.329081e-010
1.050000000000001e+000	2.329901e-010
1.060000000000001e+000	2.330721e-010
1.070000000000001e+000	2.331540e-010
1.080000000000001e+000	2.332359e-010
1.090000000000001e+000	2.333179e-010
1.100000000000001e+000	2.333998e-010
1.110000000000001e+000	2.334817e-010
1.120000000000001e+000	2.335637e-010
1.130000000000001e+000	2.336456e-010
1.140000000000001e+000	2.337275e-010
1.150000000000001e+000	2.338094e-010
1.160000000000001e+000	2.338913e-010
1.170000000000001e+000	2.339732e-010
1.180000000000001e+000	2.340551e-010
1.190000000000001e+000	2.341370e-010
1.200000000000001e+000	2.342189e-010
1.210000000000001e+000	2.343009e-010
1.220000000000001e+000	2.343828e-010
1.230000000000001e+000	2.344646e-010
1.240000000000001e+000	2.345465e-010
1.250000000000001e+000	2.346285e-010
1.260000000000001e+000	2.347104e-010
1.270000000000001e+000	2.347923e-010
1.280000000000001e+000	2.348742e-010
1.290000000000001e+000	2.349561e-010
1.300000000000001e+000	2.350380e-010
1.310000000000001e+000	2.351199e-010
1.320000000000001e+000	2.352018e-010
1.330000000000001e+000	2.352837e-010
1.340000000000001e+000	2.353656e-010
1.350000000000001e+000	2.354475e-010
1.360000000000001e+000	2.355295e-010
1.370000000000001e+000	2.356114e-010
1.380000000000001e+000	2.356933e-010
1.390000000000001e+000	2.357752e-010
1.400000000000001e+000	2.358571e-010
1.410000000000001e+000	2.359391e-010
1.420000000000001e+000	2.360210e-010
1.430000000000001e+000	2.361029e-010
1.440000000000001e+000	2.361849e-010
1.450000000000001e+000	2.362668e-010
1.460000000000001e+000	2.363488e-010
1.470000000000001e+000	2.364307e-010
1.480000000000001e+000	2.365127e-010
1.490000000000001e+000	2.365946e-010
1.500000000000001e+000	2.366766e-010
1.510000000000001e+000	2.367585e-010
1.520000000000001e+000	2.368405e-010
1.530000000000001e+000	2.369225e-010
1.540000000000001e+000	2.370044e-010
1.550000000000001e+000	2.370864e-010
1.560000000000001e+000	2.371684e-010
1.570000000000001e+000	2.372504e-010
1.580000000000001e+000	2.373324e-010
1.590000000000001e+000	2.374144e-010
1.600000000000001e+000	2.374964e-010
1.610000000000001e+000	2.375784e-010
1.620000000000001e+000	2.376604e-010
1.630000000000001e+000	2.377424e-010
1.640000000000001e+000	2.378245e-010
1.650000000000001e+000	2.379065e-010
1.660000000000001e+000	2.379885e-010
1.670000000000001e+000	2.380705e-010
1.680000000000001e+000	2.381526e-010
1.690000000000001e+000	2.382346e-010
1.700000000000001e+000	2.383167e-010
1.710000000000001e+000	2.383987e-010
1.720000000000001e+000	2.384808e-010
1.730000000000001e+000	2.385628e-010
1.740000000000001e+000	2.386449e-010
1.750000000000001e+000	2.387270e-010
1.760000000000001e+000	2.388091e-010
1.770000000000001e+000	2.388912e-010
1.780000000000001e+000	2.389733e-010
1.790000000000001e+000	2.390554e-010
1.800000000000000e+000	2.391375e-010
Step Information: Vgs=400m  (Run: 3/10)
0.000000000000000e+000	0.000000e+000
1.000000000000000e-002	8.210436e-009
2.000000000000000e-002	1.468274e-008
3.000000000000000e-002	1.955021e-008
4.000000000000000e-002	2.301592e-008
5.000000000000000e-002	2.535097e-008
6.000000000000001e-002	2.685703e-008
7.000000000000001e-002	2.780787e-008
8.000000000000000e-002	2.841007e-008
9.000000000000000e-002	2.879987e-008
9.999999999999999e-002	2.906036e-008
1.100000000000000e-001	2.924074e-008
1.200000000000000e-001	2.937014e-008
1.300000000000000e-001	2.946611e-008
1.400000000000000e-001	2.953953e-008
1.500000000000000e-001	2.959726e-008
1.600000000000000e-001	2.964384e-008
1.700000000000000e-001	2.968228e-008
1.800000000000000e-001	2.971466e-008
1.900000000000000e-001	2.974246e-008
2.000000000000000e-001	2.976672e-008
2.100000000000001e-001	2.978820e-008
2.200000000000001e-001	2.980750e-008
2.300000000000001e-001	2.982502e-008
2.400000000000001e-001	2.984113e-008
2.500000000000001e-001	2.985605e-008
2.600000000000001e-001	2.987001e-008
2.700000000000001e-001	2.988315e-008
2.800000000000001e-001	2.989561e-008
2.900000000000001e-001	2.990749e-008
3.000000000000001e-001	2.991889e-008
3.100000000000001e-001	2.992985e-008
3.200000000000001e-001	2.994046e-008
3.300000000000001e-001	2.995075e-008
3.400000000000001e-001	2.996076e-008
3.500000000000001e-001	2.997053e-008
3.600000000000002e-001	2.998009e-008
3.700000000000002e-001	2.998946e-008
3.800000000000002e-001	2.999867e-008
3.900000000000002e-001	3.000772e-008
4.000000000000002e-001	3.001665e-008
4.100000000000002e-001	3.002545e-008
4.200000000000002e-001	3.003415e-008
4.300000000000002e-001	3.004276e-008
4.400000000000002e-001	3.005128e-008
4.500000000000002e-001	3.005971e-008
4.600000000000002e-001	3.006808e-008
4.700000000000003e-001	3.007639e-008
4.800000000000003e-001	3.008463e-008
4.900000000000003e-001	3.009282e-008
5.000000000000002e-001	3.010096e-008
5.100000000000002e-001	3.010906e-008
5.200000000000002e-001	3.011711e-008
5.300000000000003e-001	3.012513e-008
5.400000000000003e-001	3.013311e-008
5.500000000000003e-001	3.014106e-008
5.600000000000003e-001	3.014898e-008
5.700000000000003e-001	3.015687e-008
5.800000000000003e-001	3.016473e-008
5.900000000000003e-001	3.017258e-008
6.000000000000003e-001	3.018039e-008
6.100000000000003e-001	3.018819e-008
6.200000000000003e-001	3.019597e-008
6.300000000000003e-001	3.020373e-008
6.400000000000004e-001	3.021147e-008
6.500000000000004e-001	3.021920e-008
6.600000000000004e-001	3.022691e-008
6.700000000000004e-001	3.023461e-008
6.800000000000004e-001	3.024229e-008
6.900000000000004e-001	3.024996e-008
7.000000000000004e-001	3.025762e-008
7.100000000000004e-001	3.026527e-008
7.200000000000004e-001	3.027291e-008
7.300000000000004e-001	3.028054e-008
7.400000000000004e-001	3.028817e-008
7.500000000000004e-001	3.029578e-008
7.600000000000005e-001	3.030338e-008
7.700000000000005e-001	3.031098e-008
7.800000000000005e-001	3.031857e-008
7.900000000000005e-001	3.032615e-008
8.000000000000005e-001	3.033373e-008
8.100000000000005e-001	3.034130e-008
8.200000000000005e-001	3.034886e-008
8.300000000000005e-001	3.035642e-008
8.400000000000005e-001	3.036397e-008
8.500000000000005e-001	3.037152e-008
8.600000000000005e-001	3.037907e-008
8.700000000000006e-001	3.038661e-008
8.800000000000006e-001	3.039414e-008
8.900000000000006e-001	3.040167e-008
9.000000000000006e-001	3.040920e-008
9.100000000000006e-001	3.041673e-008
9.200000000000006e-001	3.042425e-008
9.300000000000006e-001	3.043176e-008
9.400000000000006e-001	3.043928e-008
9.500000000000006e-001	3.044679e-008
9.600000000000006e-001	3.045430e-008
9.700000000000006e-001	3.046180e-008
9.800000000000007e-001	3.046931e-008
9.900000000000007e-001	3.047681e-008
1.000000000000001e+000	3.048430e-008
1.010000000000001e+000	3.049180e-008
1.020000000000001e+000	3.049929e-008
1.030000000000001e+000	3.050678e-008
1.040000000000001e+000	3.051428e-008
1.050000000000001e+000	3.052176e-008
1.060000000000001e+000	3.052925e-008
1.070000000000001e+000	3.053673e-008
1.080000000000001e+000	3.054421e-008
1.090000000000001e+000	3.055170e-008
1.100000000000001e+000	3.055918e-008
1.110000000000001e+000	3.056666e-008
1.120000000000001e+000	3.057413e-008
1.130000000000001e+000	3.058161e-008
1.140000000000001e+000	3.058909e-008
1.150000000000001e+000	3.059656e-008
1.160000000000001e+000	3.060403e-008
1.170000000000001e+000	3.061150e-008
1.180000000000001e+000	3.061897e-008
1.190000000000001e+000	3.062644e-008
1.200000000000001e+000	3.063391e-008
1.210000000000001e+000	3.064138e-008
1.220000000000001e+000	3.064885e-008
1.230000000000001e+000	3.065631e-008
1.240000000000001e+000	3.066378e-008
1.250000000000001e+000	3.067125e-008
1.260000000000001e+000	3.067871e-008
1.270000000000001e+000	3.068617e-008
1.280000000000001e+000	3.069364e-008
1.290000000000001e+000	3.070110e-008
1.300000000000001e+000	3.070856e-008
1.310000000000001e+000	3.071602e-008
1.320000000000001e+000	3.072348e-008
1.330000000000001e+000	3.073094e-008
1.340000000000001e+000	3.073841e-008
1.350000000000001e+000	3.074587e-008
1.360000000000001e+000	3.075333e-008
1.370000000000001e+000	3.076079e-008
1.380000000000001e+000	3.076824e-008
1.390000000000001e+000	3.077571e-008
1.400000000000001e+000	3.078316e-008
1.410000000000001e+000	3.079062e-008
1.420000000000001e+000	3.079808e-008
1.430000000000001e+000	3.080554e-008
1.440000000000001e+000	3.081299e-008
1.450000000000001e+000	3.082046e-008
1.460000000000001e+000	3.082791e-008
1.470000000000001e+000	3.083537e-008
1.480000000000001e+000	3.084283e-008
1.490000000000001e+000	3.085028e-008
1.500000000000001e+000	3.085774e-008
1.510000000000001e+000	3.086520e-008
1.520000000000001e+000	3.087266e-008
1.530000000000001e+000	3.088011e-008
1.540000000000001e+000	3.088757e-008
1.550000000000001e+000	3.089503e-008
1.560000000000001e+000	3.090248e-008
1.570000000000001e+000	3.090994e-008
1.580000000000001e+000	3.091740e-008
1.590000000000001e+000	3.092486e-008
1.600000000000001e+000	3.093231e-008
1.610000000000001e+000	3.093977e-008
1.620000000000001e+000	3.094723e-008
1.630000000000001e+000	3.095468e-008
1.640000000000001e+000	3.096214e-008
1.650000000000001e+000	3.096960e-008
1.660000000000001e+000	3.097706e-008
1.670000000000001e+000	3.098452e-008
1.680000000000001e+000	3.099197e-008
1.690000000000001e+000	3.099943e-008
1.700000000000001e+000	3.100689e-008
1.710000000000001e+000	3.101435e-008
1.720000000000001e+000	3.102181e-008
1.730000000000001e+000	3.102927e-008
1.740000000000001e+000	3.103672e-008
1.750000000000001e+000	3.104418e-008
1.760000000000001e+000	3.105164e-008
1.770000000000001e+000	3.105910e-008
1.780000000000001e+000	3.106656e-008
1.790000000000001e+000	3.107402e-008
1.800000000000000e+000	3.108148e-008
Step Information: Vgs=600m  (Run: 4/10)
0.000000000000000e+000	0.000000e+000
1.000000000000000e-002	5.893861e-008
2.000000000000000e-002	1.142178e-007
3.000000000000000e-002	1.658481e-007
4.000000000000000e-002	2.138426e-007
5.000000000000000e-002	2.582183e-007
6.000000000000001e-002	2.989973e-007
7.000000000000001e-002	3.362087e-007
8.000000000000000e-002	3.698908e-007
9.000000000000000e-002	4.000955e-007
9.999999999999999e-002	4.268917e-007
1.100000000000000e-001	4.503723e-007
1.200000000000000e-001	4.706603e-007
1.300000000000000e-001	4.879169e-007
1.400000000000000e-001	5.023467e-007
1.500000000000000e-001	5.142007e-007
1.600000000000000e-001	5.237709e-007
1.700000000000000e-001	5.313772e-007
1.800000000000000e-001	5.373475e-007
1.900000000000000e-001	5.419953e-007
2.000000000000000e-001	5.456010e-007
2.100000000000001e-001	5.484018e-007
2.200000000000001e-001	5.505889e-007
2.300000000000001e-001	5.523111e-007
2.400000000000001e-001	5.536818e-007
2.500000000000001e-001	5.547857e-007
2.600000000000001e-001	5.556862e-007
2.700000000000001e-001	5.564303e-007
2.800000000000001e-001	5.570529e-007
2.900000000000001e-001	5.575804e-007
3.000000000000001e-001	5.580327e-007
3.100000000000001e-001	5.584249e-007
3.200000000000001e-001	5.587685e-007
3.300000000000001e-001	5.590728e-007
3.400000000000001e-001	5.593447e-007
3.500000000000001e-001	5.595898e-007
3.600000000000002e-001	5.598125e-007
3.700000000000002e-001	5.600164e-007
3.800000000000002e-001	5.602045e-007
3.900000000000002e-001	5.603789e-007
4.000000000000002e-001	5.605418e-007
4.100000000000002e-001	5.606947e-007
4.200000000000002e-001	5.608390e-007
4.300000000000002e-001	5.609757e-007
4.400000000000002e-001	5.611059e-007
4.500000000000002e-001	5.612302e-007
4.600000000000002e-001	5.613494e-007
4.700000000000003e-001	5.614641e-007
4.800000000000003e-001	5.615748e-007
4.900000000000003e-001	5.616819e-007
5.000000000000002e-001	5.617857e-007
5.100000000000002e-001	5.618867e-007
5.200000000000002e-001	5.619850e-007
5.300000000000003e-001	5.620810e-007
5.400000000000003e-001	5.621749e-007
5.500000000000003e-001	5.622668e-007
5.600000000000003e-001	5.623570e-007
5.700000000000003e-001	5.624456e-007
5.800000000000003e-001	5.625326e-007
5.900000000000003e-001	5.626184e-007
6.000000000000003e-001	5.627029e-007
6.100000000000003e-001	5.627862e-007
6.200000000000003e-001	5.628685e-007
6.300000000000003e-001	5.629498e-007
6.400000000000004e-001	5.630303e-007
6.500000000000004e-001	5.631098e-007
6.600000000000004e-001	5.631886e-007
6.700000000000004e-001	5.632667e-007
6.800000000000004e-001	5.633441e-007
6.900000000000004e-001	5.634209e-007
7.000000000000004e-001	5.634971e-007
7.100000000000004e-001	5.635727e-007
7.200000000000004e-001	5.636479e-007
7.300000000000004e-001	5.637225e-007
7.400000000000004e-001	5.637967e-007
7.500000000000004e-001	5.638705e-007
7.600000000000005e-001	5.639438e-007
7.700000000000005e-001	5.640168e-007
7.800000000000005e-001	5.640895e-007
7.900000000000005e-001	5.641618e-007
8.000000000000005e-001	5.642337e-007
8.100000000000005e-001	5.643055e-007
8.200000000000005e-001	5.643769e-007
8.300000000000005e-001	5.644480e-007
8.400000000000005e-001	5.645189e-007
8.500000000000005e-001	5.645895e-007
8.600000000000005e-001	5.646600e-007
8.700000000000006e-001	5.647302e-007
8.800000000000006e-001	5.648001e-007
8.900000000000006e-001	5.648699e-007
9.000000000000006e-001	5.649395e-007
9.100000000000006e-001	5.650089e-007
9.200000000000006e-001	5.650782e-007
9.300000000000006e-001	5.651473e-007
9.400000000000006e-001	5.652162e-007
9.500000000000006e-001	5.652850e-007
9.600000000000006e-001	5.653537e-007
9.700000000000006e-001	5.654222e-007
9.800000000000007e-001	5.654906e-007
9.900000000000007e-001	5.655588e-007
1.000000000000001e+000	5.656269e-007
1.010000000000001e+000	5.656950e-007
1.020000000000001e+000	5.657629e-007
1.030000000000001e+000	5.658306e-007
1.040000000000001e+000	5.658984e-007
1.050000000000001e+000	5.659660e-007
1.060000000000001e+000	5.660335e-007
1.070000000000001e+000	5.661009e-007
1.080000000000001e+000	5.661683e-007
1.090000000000001e+000	5.662355e-007
1.100000000000001e+000	5.663027e-007
1.110000000000001e+000	5.663698e-007
1.120000000000001e+000	5.664368e-007
1.130000000000001e+000	5.665038e-007
1.140000000000001e+000	5.665707e-007
1.150000000000001e+000	5.666375e-007
1.160000000000001e+000	5.667042e-007
1.170000000000001e+000	5.667710e-007
1.180000000000001e+000	5.668376e-007
1.190000000000001e+000	5.669041e-007
1.200000000000001e+000	5.669706e-007
1.210000000000001e+000	5.670371e-007
1.220000000000001e+000	5.671035e-007
1.230000000000001e+000	5.671699e-007
1.240000000000001e+000	5.672362e-007
1.250000000000001e+000	5.673025e-007
1.260000000000001e+000	5.673687e-007
1.270000000000001e+000	5.674349e-007
1.280000000000001e+000	5.675010e-007
1.290000000000001e+000	5.675671e-007
1.300000000000001e+000	5.676332e-007
1.310000000000001e+000	5.676992e-007
1.320000000000001e+000	5.677651e-007
1.330000000000001e+000	5.678311e-007
1.340000000000001e+000	5.678970e-007
1.350000000000001e+000	5.679628e-007
1.360000000000001e+000	5.680287e-007
1.370000000000001e+000	5.680945e-007
1.380000000000001e+000	5.681603e-007
1.390000000000001e+000	5.682260e-007
1.400000000000001e+000	5.682917e-007
1.410000000000001e+000	5.683574e-007
1.420000000000001e+000	5.684230e-007
1.430000000000001e+000	5.684887e-007
1.440000000000001e+000	5.685543e-007
1.450000000000001e+000	5.686198e-007
1.460000000000001e+000	5.686854e-007
1.470000000000001e+000	5.687509e-007
1.480000000000001e+000	5.688165e-007
1.490000000000001e+000	5.688819e-007
1.500000000000001e+000	5.689474e-007
1.510000000000001e+000	5.690128e-007
1.520000000000001e+000	5.690782e-007
1.530000000000001e+000	5.691436e-007
1.540000000000001e+000	5.692090e-007
1.550000000000001e+000	5.692743e-007
1.560000000000001e+000	5.693396e-007
1.570000000000001e+000	5.694050e-007
1.580000000000001e+000	5.694703e-007
1.590000000000001e+000	5.695355e-007
1.600000000000001e+000	5.696008e-007
1.610000000000001e+000	5.696660e-007
1.620000000000001e+000	5.697313e-007
1.630000000000001e+000	5.697965e-007
1.640000000000001e+000	5.698617e-007
1.650000000000001e+000	5.699268e-007
1.660000000000001e+000	5.699920e-007
1.670000000000001e+000	5.700572e-007
1.680000000000001e+000	5.701223e-007
1.690000000000001e+000	5.701874e-007
1.700000000000001e+000	5.702526e-007
1.710000000000001e+000	5.703176e-007
1.720000000000001e+000	5.703827e-007
1.730000000000001e+000	5.704478e-007
1.740000000000001e+000	5.705128e-007
1.750000000000001e+000	5.705779e-007
1.760000000000001e+000	5.706429e-007
1.770000000000001e+000	5.707079e-007
1.780000000000001e+000	5.707730e-007
1.790000000000001e+000	5.708379e-007
1.800000000000000e+000	5.709029e-007
Step Information: Vgs=800m  (Run: 5/10)
0.000000000000000e+000	0.000000e+000
1.000000000000000e-002	1.193935e-007
2.000000000000000e-002	2.348222e-007
3.000000000000000e-002	3.462887e-007
4.000000000000000e-002	4.537962e-007
5.000000000000000e-002	5.573478e-007
6.000000000000001e-002	6.569476e-007
7.000000000000001e-002	7.525994e-007
8.000000000000000e-002	8.443081e-007
9.000000000000000e-002	9.320792e-007
9.999999999999999e-002	1.015919e-006
1.100000000000000e-001	1.095834e-006
1.200000000000000e-001	1.171834e-006
1.300000000000000e-001	1.243928e-006
1.400000000000000e-001	1.312129e-006
1.500000000000000e-001	1.376451e-006
1.600000000000000e-001	1.436911e-006
1.700000000000000e-001	1.493532e-006
1.800000000000000e-001	1.546340e-006
1.900000000000000e-001	1.595367e-006
2.000000000000000e-001	1.640654e-006
2.100000000000001e-001	1.682252e-006
2.200000000000001e-001	1.720223e-006
2.300000000000001e-001	1.754645e-006
2.400000000000001e-001	1.785615e-006
2.500000000000001e-001	1.813250e-006
2.600000000000001e-001	1.837693e-006
2.700000000000001e-001	1.859112e-006
2.800000000000001e-001	1.877705e-006
2.900000000000001e-001	1.893694e-006
3.000000000000001e-001	1.907321e-006
3.100000000000001e-001	1.918844e-006
3.200000000000001e-001	1.928524e-006
3.300000000000001e-001	1.936617e-006
3.400000000000001e-001	1.943363e-006
3.500000000000001e-001	1.948982e-006
3.600000000000002e-001	1.953667e-006
3.700000000000002e-001	1.957583e-006
3.800000000000002e-001	1.960872e-006
3.900000000000002e-001	1.963648e-006
4.000000000000002e-001	1.966005e-006
4.100000000000002e-001	1.968021e-006
4.200000000000002e-001	1.969758e-006
4.300000000000002e-001	1.971264e-006
4.400000000000002e-001	1.972581e-006
4.500000000000002e-001	1.973740e-006
4.600000000000002e-001	1.974767e-006
4.700000000000003e-001	1.975685e-006
4.800000000000003e-001	1.976509e-006
4.900000000000003e-001	1.977255e-006
5.000000000000002e-001	1.977933e-006
5.100000000000002e-001	1.978554e-006
5.200000000000002e-001	1.979125e-006
5.300000000000003e-001	1.979654e-006
5.400000000000003e-001	1.980145e-006
5.500000000000003e-001	1.980603e-006
5.600000000000003e-001	1.981033e-006
5.700000000000003e-001	1.981438e-006
5.800000000000003e-001	1.981820e-006
5.900000000000003e-001	1.982183e-006
6.000000000000003e-001	1.982528e-006
6.100000000000003e-001	1.982858e-006
6.200000000000003e-001	1.983173e-006
6.300000000000003e-001	1.983476e-006
6.400000000000004e-001	1.983767e-006
6.500000000000004e-001	1.984048e-006
6.600000000000004e-001	1.984319e-006
6.700000000000004e-001	1.984582e-006
6.800000000000004e-001	1.984838e-006
6.900000000000004e-001	1.985086e-006
7.000000000000004e-001	1.985328e-006
7.100000000000004e-001	1.985563e-006
7.200000000000004e-001	1.985793e-006
7.300000000000004e-001	1.986019e-006
7.400000000000004e-001	1.986239e-006
7.500000000000004e-001	1.986456e-006
7.600000000000005e-001	1.986668e-006
7.700000000000005e-001	1.986876e-006
7.800000000000005e-001	1.987081e-006
7.900000000000005e-001	1.987283e-006
8.000000000000005e-001	1.987482e-006
8.100000000000005e-001	1.987678e-006
8.200000000000005e-001	1.987872e-006
8.300000000000005e-001	1.988063e-006
8.400000000000005e-001	1.988252e-006
8.500000000000005e-001	1.988438e-006
8.600000000000005e-001	1.988623e-006
8.700000000000006e-001	1.988806e-006
8.800000000000006e-001	1.988987e-006
8.900000000000006e-001	1.989166e-006
9.000000000000006e-001	1.989344e-006
9.100000000000006e-001	1.989520e-006
9.200000000000006e-001	1.989695e-006
9.300000000000006e-001	1.989868e-006
9.400000000000006e-001	1.990041e-006
9.500000000000006e-001	1.990212e-006
9.600000000000006e-001	1.990382e-006
9.700000000000006e-001	1.990550e-006
9.800000000000007e-001	1.990718e-006
9.900000000000007e-001	1.990885e-006
1.000000000000001e+000	1.991051e-006
1.010000000000001e+000	1.991216e-006
1.020000000000001e+000	1.991380e-006
1.030000000000001e+000	1.991543e-006
1.040000000000001e+000	1.991706e-006
1.050000000000001e+000	1.991867e-006
1.060000000000001e+000	1.992029e-006
1.070000000000001e+000	1.992189e-006
1.080000000000001e+000	1.992349e-006
1.090000000000001e+000	1.992508e-006
1.100000000000001e+000	1.992667e-006
1.110000000000001e+000	1.992825e-006
1.120000000000001e+000	1.992982e-006
1.130000000000001e+000	1.993139e-006
1.140000000000001e+000	1.993295e-006
1.150000000000001e+000	1.993451e-006
1.160000000000001e+000	1.993607e-006
1.170000000000001e+000	1.993762e-006
1.180000000000001e+000	1.993917e-006
1.190000000000001e+000	1.994071e-006
1.200000000000001e+000	1.994225e-006
1.210000000000001e+000	1.994378e-006
1.220000000000001e+000	1.994531e-006
1.230000000000001e+000	1.994684e-006
1.240000000000001e+000	1.994836e-006
1.250000000000001e+000	1.994988e-006
1.260000000000001e+000	1.995140e-006
1.270000000000001e+000	1.995292e-006
1.280000000000001e+000	1.995443e-006
1.290000000000001e+000	1.995593e-006
1.300000000000001e+000	1.995744e-006
1.310000000000001e+000	1.995895e-006
1.320000000000001e+000	1.996044e-006
1.330000000000001e+000	1.996194e-006
1.340000000000001e+000	1.996344e-006
1.350000000000001e+000	1.996493e-006
1.360000000000001e+000	1.996642e-006
1.370000000000001e+000	1.996791e-006
1.380000000000001e+000	1.996940e-006
1.390000000000001e+000	1.997088e-006
1.400000000000001e+000	1.997236e-006
1.410000000000001e+000	1.997385e-006
1.420000000000001e+000	1.997533e-006
1.430000000000001e+000	1.997680e-006
1.440000000000001e+000	1.997828e-006
1.450000000000001e+000	1.997975e-006
1.460000000000001e+000	1.998122e-006
1.470000000000001e+000	1.998269e-006
1.480000000000001e+000	1.998416e-006
1.490000000000001e+000	1.998563e-006
1.500000000000001e+000	1.998709e-006
1.510000000000001e+000	1.998856e-006
1.520000000000001e+000	1.999002e-006
1.530000000000001e+000	1.999148e-006
1.540000000000001e+000	1.999294e-006
1.550000000000001e+000	1.999440e-006
1.560000000000001e+000	1.999586e-006
1.570000000000001e+000	1.999731e-006
1.580000000000001e+000	1.999877e-006
1.590000000000001e+000	2.000022e-006
1.600000000000001e+000	2.000167e-006
1.610000000000001e+000	2.000312e-006
1.620000000000001e+000	2.000457e-006
1.630000000000001e+000	2.000602e-006
1.640000000000001e+000	2.000747e-006
1.650000000000001e+000	2.000892e-006
1.660000000000001e+000	2.001037e-006
1.670000000000001e+000	2.001181e-006
1.680000000000001e+000	2.001325e-006
1.690000000000001e+000	2.001470e-006
1.700000000000001e+000	2.001614e-006
1.710000000000001e+000	2.001758e-006
1.720000000000001e+000	2.001902e-006
1.730000000000001e+000	2.002046e-006
1.740000000000001e+000	2.002190e-006
1.750000000000001e+000	2.002334e-006
1.760000000000001e+000	2.002478e-006
1.770000000000001e+000	2.002621e-006
1.780000000000001e+000	2.002765e-006
1.790000000000001e+000	2.002909e-006
1.800000000000000e+000	2.003052e-006
Step Information: Vgs=1  (Run: 6/10)
0.000000000000000e+000	0.000000e+000
1.000000000000000e-002	1.772572e-007
2.000000000000000e-002	3.505552e-007
3.000000000000000e-002	5.198954e-007
4.000000000000000e-002	6.852796e-007
5.000000000000000e-002	8.467096e-007
6.000000000000001e-002	1.004187e-006
7.000000000000001e-002	1.157714e-006
8.000000000000000e-002	1.307292e-006
9.000000000000000e-002	1.452923e-006
9.999999999999999e-002	1.594610e-006
1.100000000000000e-001	1.732355e-006
1.200000000000000e-001	1.866160e-006
1.300000000000000e-001	1.996028e-006
1.400000000000000e-001	2.121962e-006
1.500000000000000e-001	2.243965e-006
1.600000000000000e-001	2.362041e-006
1.700000000000000e-001	2.476192e-006
1.800000000000000e-001	2.586424e-006
1.900000000000000e-001	2.692741e-006
2.000000000000000e-001	2.795148e-006
2.100000000000001e-001	2.893650e-006
2.200000000000001e-001	2.988255e-006
2.300000000000001e-001	3.078970e-006
2.400000000000001e-001	3.165804e-006
2.500000000000001e-001	3.248767e-006
2.600000000000001e-001	3.327871e-006
2.700000000000001e-001	3.403128e-006
2.800000000000001e-001	3.474556e-006
2.900000000000001e-001	3.542174e-006
3.000000000000001e-001	3.606003e-006
3.100000000000001e-001	3.666072e-006
3.200000000000001e-001	3.722411e-006
3.300000000000001e-001	3.775060e-006
3.400000000000001e-001	3.824064e-006
3.500000000000001e-001	3.869478e-006
3.600000000000002e-001	3.911370e-006
3.700000000000002e-001	3.949816e-006
3.800000000000002e-001	3.984910e-006
3.900000000000002e-001	4.016760e-006
4.000000000000002e-001	4.045493e-006
4.100000000000002e-001	4.071254e-006
4.200000000000002e-001	4.094207e-006
4.300000000000002e-001	4.114533e-006
4.400000000000002e-001	4.132427e-006
4.500000000000002e-001	4.148095e-006
4.600000000000002e-001	4.161750e-006
4.700000000000003e-001	4.173607e-006
4.800000000000003e-001	4.183873e-006
4.900000000000003e-001	4.192746e-006
5.000000000000002e-001	4.200411e-006
5.100000000000002e-001	4.207037e-006
5.200000000000002e-001	4.212772e-006
5.300000000000003e-001	4.217749e-006
5.400000000000003e-001	4.222082e-006
5.500000000000003e-001	4.225868e-006
5.600000000000003e-001	4.229189e-006
5.700000000000003e-001	4.232118e-006
5.800000000000003e-001	4.234712e-006
5.900000000000003e-001	4.237021e-006
6.000000000000003e-001	4.239087e-006
6.100000000000003e-001	4.240945e-006
6.200000000000003e-001	4.242623e-006
6.300000000000003e-001	4.244147e-006
6.400000000000004e-001	4.245537e-006
6.500000000000004e-001	4.246811e-006
6.600000000000004e-001	4.247984e-006
6.700000000000004e-001	4.249068e-006
6.800000000000004e-001	4.250074e-006
6.900000000000004e-001	4.251011e-006
7.000000000000004e-001	4.251888e-006
7.100000000000004e-001	4.252710e-006
7.200000000000004e-001	4.253485e-006
7.300000000000004e-001	4.254216e-006
7.400000000000004e-001	4.254910e-006
7.500000000000004e-001	4.255568e-006
7.600000000000005e-001	4.256196e-006
7.700000000000005e-001	4.256795e-006
7.800000000000005e-001	4.257369e-006
7.900000000000005e-001	4.257919e-006
8.000000000000005e-001	4.258449e-006
8.100000000000005e-001	4.258959e-006
8.200000000000005e-001	4.259452e-006
8.300000000000005e-001	4.259928e-006
8.400000000000005e-001	4.260390e-006
8.500000000000005e-001	4.260838e-006
8.600000000000005e-001	4.261273e-006
8.700000000000006e-001	4.261697e-006
8.800000000000006e-001	4.262110e-006
8.900000000000006e-001	4.262513e-006
9.000000000000006e-001	4.262907e-006
9.100000000000006e-001	4.263292e-006
9.200000000000006e-001	4.263669e-006
9.300000000000006e-001	4.264039e-006
9.400000000000006e-001	4.264401e-006
9.500000000000006e-001	4.264758e-006
9.600000000000006e-001	4.265108e-006
9.700000000000006e-001	4.265452e-006
9.800000000000007e-001	4.265791e-006
9.900000000000007e-001	4.266125e-006
1.000000000000001e+000	4.266455e-006
1.010000000000001e+000	4.266779e-006
1.020000000000001e+000	4.267099e-006
1.030000000000001e+000	4.267416e-006
1.040000000000001e+000	4.267729e-006
1.050000000000001e+000	4.268038e-006
1.060000000000001e+000	4.268344e-006
1.070000000000001e+000	4.268647e-006
1.080000000000001e+000	4.268946e-006
1.090000000000001e+000	4.269243e-006
1.100000000000001e+000	4.269537e-006
1.110000000000001e+000	4.269828e-006
1.120000000000001e+000	4.270117e-006
1.130000000000001e+000	4.270404e-006
1.140000000000001e+000	4.270688e-006
1.150000000000001e+000	4.270970e-006
1.160000000000001e+000	4.271250e-006
1.170000000000001e+000	4.271528e-006
1.180000000000001e+000	4.271805e-006
1.190000000000001e+000	4.272079e-006
1.200000000000001e+000	4.272352e-006
1.210000000000001e+000	4.272623e-006
1.220000000000001e+000	4.272893e-006
1.230000000000001e+000	4.273161e-006
1.240000000000001e+000	4.273428e-006
1.250000000000001e+000	4.273693e-006
1.260000000000001e+000	4.273958e-006
1.270000000000001e+000	4.274220e-006
1.280000000000001e+000	4.274482e-006
1.290000000000001e+000	4.274742e-006
1.300000000000001e+000	4.275002e-006
1.310000000000001e+000	4.275259e-006
1.320000000000001e+000	4.275517e-006
1.330000000000001e+000	4.275773e-006
1.340000000000001e+000	4.276028e-006
1.350000000000001e+000	4.276282e-006
1.360000000000001e+000	4.276535e-006
1.370000000000001e+000	4.276788e-006
1.380000000000001e+000	4.277040e-006
1.390000000000001e+000	4.277291e-006
1.400000000000001e+000	4.277540e-006
1.410000000000001e+000	4.277790e-006
1.420000000000001e+000	4.278038e-006
1.430000000000001e+000	4.278286e-006
1.440000000000001e+000	4.278534e-006
1.450000000000001e+000	4.278780e-006
1.460000000000001e+000	4.279026e-006
1.470000000000001e+000	4.279271e-006
1.480000000000001e+000	4.279516e-006
1.490000000000001e+000	4.279760e-006
1.500000000000001e+000	4.280003e-006
1.510000000000001e+000	4.280246e-006
1.520000000000001e+000	4.280489e-006
1.530000000000001e+000	4.280731e-006
1.540000000000001e+000	4.280972e-006
1.550000000000001e+000	4.281213e-006
1.560000000000001e+000	4.281454e-006
1.570000000000001e+000	4.281694e-006
1.580000000000001e+000	4.281933e-006
1.590000000000001e+000	4.282173e-006
1.600000000000001e+000	4.282411e-006
1.610000000000001e+000	4.282650e-006
1.620000000000001e+000	4.282887e-006
1.630000000000001e+000	4.283125e-006
1.640000000000001e+000	4.283362e-006
1.650000000000001e+000	4.283599e-006
1.660000000000001e+000	4.283835e-006
1.670000000000001e+000	4.284072e-006
1.680000000000001e+000	4.284307e-006
1.690000000000001e+000	4.284543e-006
1.700000000000001e+000	4.284778e-006
1.710000000000001e+000	4.285012e-006
1.720000000000001e+000	4.285247e-006
1.730000000000001e+000	4.285481e-006
1.740000000000001e+000	4.285715e-006
1.750000000000001e+000	4.285949e-006
1.760000000000001e+000	4.286182e-006
1.770000000000001e+000	4.286415e-006
1.780000000000001e+000	4.286648e-006
1.790000000000001e+000	4.286881e-006
1.800000000000000e+000	4.287113e-006
Step Information: Vgs=1.2  (Run: 7/10)
0.000000000000000e+000	0.000000e+000
1.000000000000000e-002	2.311536e-007
2.000000000000000e-002	4.584822e-007
3.000000000000000e-002	6.819868e-007
4.000000000000000e-002	9.016687e-007
5.000000000000000e-002	1.117529e-006
6.000000000000001e-002	1.329570e-006
7.000000000000001e-002	1.537791e-006
8.000000000000000e-002	1.742195e-006
9.000000000000000e-002	1.942783e-006
9.999999999999999e-002	2.139556e-006
1.100000000000000e-001	2.332516e-006
1.200000000000000e-001	2.521664e-006
1.300000000000000e-001	2.707001e-006
1.400000000000000e-001	2.888529e-006
1.500000000000000e-001	3.066250e-006
1.600000000000000e-001	3.240165e-006
1.700000000000000e-001	3.410276e-006
1.800000000000000e-001	3.576584e-006
1.900000000000000e-001	3.739092e-006
2.000000000000000e-001	3.897801e-006
2.100000000000001e-001	4.052713e-006
2.200000000000001e-001	4.203831e-006
2.300000000000001e-001	4.351157e-006
2.400000000000001e-001	4.494692e-006
2.500000000000001e-001	4.634440e-006
2.600000000000001e-001	4.770403e-006
2.700000000000001e-001	4.902585e-006
2.800000000000001e-001	5.030987e-006
2.900000000000001e-001	5.155614e-006
3.000000000000001e-001	5.276470e-006
3.100000000000001e-001	5.393558e-006
3.200000000000001e-001	5.506883e-006
3.300000000000001e-001	5.616450e-006
3.400000000000001e-001	5.722266e-006
3.500000000000001e-001	5.824334e-006
3.600000000000002e-001	5.922665e-006
3.700000000000002e-001	6.017264e-006
3.800000000000002e-001	6.108141e-006
3.900000000000002e-001	6.195307e-006
4.000000000000002e-001	6.278774e-006
4.100000000000002e-001	6.358555e-006
4.200000000000002e-001	6.434666e-006
4.300000000000002e-001	6.507126e-006
4.400000000000002e-001	6.575956e-006
4.500000000000002e-001	6.641181e-006
4.600000000000002e-001	6.702830e-006
4.700000000000003e-001	6.760937e-006
4.800000000000003e-001	6.815542e-006
4.900000000000003e-001	6.866692e-006
5.000000000000002e-001	6.914440e-006
5.100000000000002e-001	6.958851e-006
5.200000000000002e-001	6.999997e-006
5.300000000000003e-001	7.037963e-006
5.400000000000003e-001	7.072846e-006
5.500000000000003e-001	7.104755e-006
5.600000000000003e-001	7.133814e-006
5.700000000000003e-001	7.160158e-006
5.800000000000003e-001	7.183936e-006
5.900000000000003e-001	7.205308e-006
6.000000000000003e-001	7.224442e-006
6.100000000000003e-001	7.241513e-006
6.200000000000003e-001	7.256698e-006
6.300000000000003e-001	7.270173e-006
6.400000000000004e-001	7.282109e-006
6.500000000000004e-001	7.292673e-006
6.600000000000004e-001	7.302018e-006
6.700000000000004e-001	7.310289e-006
6.800000000000004e-001	7.317617e-006
6.900000000000004e-001	7.324119e-006
7.000000000000004e-001	7.329902e-006
7.100000000000004e-001	7.335057e-006
7.200000000000004e-001	7.339667e-006
7.300000000000004e-001	7.343802e-006
7.400000000000004e-001	7.347524e-006
7.500000000000004e-001	7.350885e-006
7.600000000000005e-001	7.353933e-006
7.700000000000005e-001	7.356706e-006
7.800000000000005e-001	7.359238e-006
7.900000000000005e-001	7.361559e-006
8.000000000000005e-001	7.363693e-006
8.100000000000005e-001	7.365664e-006
8.200000000000005e-001	7.367490e-006
8.300000000000005e-001	7.369186e-006
8.400000000000005e-001	7.370768e-006
8.500000000000005e-001	7.372247e-006
8.600000000000005e-001	7.373635e-006
8.700000000000006e-001	7.374941e-006
8.800000000000006e-001	7.376173e-006
8.900000000000006e-001	7.377338e-006
9.000000000000006e-001	7.378443e-006
9.100000000000006e-001	7.379494e-006
9.200000000000006e-001	7.380494e-006
9.300000000000006e-001	7.381451e-006
9.400000000000006e-001	7.382365e-006
9.500000000000006e-001	7.383243e-006
9.600000000000006e-001	7.384086e-006
9.700000000000006e-001	7.384897e-006
9.800000000000007e-001	7.385679e-006
9.900000000000007e-001	7.386434e-006
1.000000000000001e+000	7.387165e-006
1.010000000000001e+000	7.387873e-006
1.020000000000001e+000	7.388559e-006
1.030000000000001e+000	7.389226e-006
1.040000000000001e+000	7.389875e-006
1.050000000000001e+000	7.390507e-006
1.060000000000001e+000	7.391123e-006
1.070000000000001e+000	7.391724e-006
1.080000000000001e+000	7.392311e-006
1.090000000000001e+000	7.392886e-006
1.100000000000001e+000	7.393448e-006
1.110000000000001e+000	7.393999e-006
1.120000000000001e+000	7.394540e-006
1.130000000000001e+000	7.395070e-006
1.140000000000001e+000	7.395591e-006
1.150000000000001e+000	7.396103e-006
1.160000000000001e+000	7.396607e-006
1.170000000000001e+000	7.397103e-006
1.180000000000001e+000	7.397591e-006
1.190000000000001e+000	7.398072e-006
1.200000000000001e+000	7.398547e-006
1.210000000000001e+000	7.399015e-006
1.220000000000001e+000	7.399477e-006
1.230000000000001e+000	7.399934e-006
1.240000000000001e+000	7.400385e-006
1.250000000000001e+000	7.400831e-006
1.260000000000001e+000	7.401272e-006
1.270000000000001e+000	7.401708e-006
1.280000000000001e+000	7.402140e-006
1.290000000000001e+000	7.402568e-006
1.300000000000001e+000	7.402992e-006
1.310000000000001e+000	7.403411e-006
1.320000000000001e+000	7.403828e-006
1.330000000000001e+000	7.404240e-006
1.340000000000001e+000	7.404649e-006
1.350000000000001e+000	7.405055e-006
1.360000000000001e+000	7.405458e-006
1.370000000000001e+000	7.405858e-006
1.380000000000001e+000	7.406255e-006
1.390000000000001e+000	7.406649e-006
1.400000000000001e+000	7.407040e-006
1.410000000000001e+000	7.407430e-006
1.420000000000001e+000	7.407816e-006
1.430000000000001e+000	7.408200e-006
1.440000000000001e+000	7.408582e-006
1.450000000000001e+000	7.408962e-006
1.460000000000001e+000	7.409340e-006
1.470000000000001e+000	7.409716e-006
1.480000000000001e+000	7.410090e-006
1.490000000000001e+000	7.410462e-006
1.500000000000001e+000	7.410832e-006
1.510000000000001e+000	7.411201e-006
1.520000000000001e+000	7.411567e-006
1.530000000000001e+000	7.411933e-006
1.540000000000001e+000	7.412296e-006
1.550000000000001e+000	7.412658e-006
1.560000000000001e+000	7.413019e-006
1.570000000000001e+000	7.413379e-006
1.580000000000001e+000	7.413737e-006
1.590000000000001e+000	7.414093e-006
1.600000000000001e+000	7.414448e-006
1.610000000000001e+000	7.414802e-006
1.620000000000001e+000	7.415155e-006
1.630000000000001e+000	7.415507e-006
1.640000000000001e+000	7.415858e-006
1.650000000000001e+000	7.416207e-006
1.660000000000001e+000	7.416556e-006
1.670000000000001e+000	7.416903e-006
1.680000000000001e+000	7.417249e-006
1.690000000000001e+000	7.417595e-006
1.700000000000001e+000	7.417940e-006
1.710000000000001e+000	7.418283e-006
1.720000000000001e+000	7.418626e-006
1.730000000000001e+000	7.418968e-006
1.740000000000001e+000	7.419309e-006
1.750000000000001e+000	7.419649e-006
1.760000000000001e+000	7.419988e-006
1.770000000000001e+000	7.420327e-006
1.780000000000001e+000	7.420665e-006
1.790000000000001e+000	7.421002e-006
1.800000000000000e+000	7.421339e-006
Step Information: Vgs=1.4  (Run: 8/10)
0.000000000000000e+000	0.000000e+000
1.000000000000000e-002	2.792590e-007
2.000000000000000e-002	5.549038e-007
3.000000000000000e-002	8.269355e-007
4.000000000000000e-002	1.095355e-006
5.000000000000000e-002	1.360164e-006
6.000000000000001e-002	1.621362e-006
7.000000000000001e-002	1.878952e-006
8.000000000000000e-002	2.132933e-006
9.000000000000000e-002	2.383308e-006
9.999999999999999e-002	2.630077e-006
1.100000000000000e-001	2.873241e-006
1.200000000000000e-001	3.112801e-006
1.300000000000000e-001	3.348759e-006
1.400000000000000e-001	3.581115e-006
1.500000000000000e-001	3.809871e-006
1.600000000000000e-001	4.035027e-006
1.700000000000000e-001	4.256585e-006
1.800000000000000e-001	4.474547e-006
1.900000000000000e-001	4.688912e-006
2.000000000000000e-001	4.899683e-006
2.100000000000001e-001	5.106861e-006
2.200000000000001e-001	5.310446e-006
2.300000000000001e-001	5.510441e-006
2.400000000000001e-001	5.706846e-006
2.500000000000001e-001	5.899662e-006
2.600000000000001e-001	6.088891e-006
2.700000000000001e-001	6.274536e-006
2.800000000000001e-001	6.456595e-006
2.900000000000001e-001	6.635073e-006
3.000000000000001e-001	6.809968e-006
3.100000000000001e-001	6.981285e-006
3.200000000000001e-001	7.149024e-006
3.300000000000001e-001	7.313186e-006
3.400000000000001e-001	7.473775e-006
3.500000000000001e-001	7.630791e-006
3.600000000000002e-001	7.784235e-006
3.700000000000002e-001	7.934113e-006
3.800000000000002e-001	8.080423e-006
3.900000000000002e-001	8.223170e-006
4.000000000000002e-001	8.362355e-006
4.100000000000002e-001	8.497983e-006
4.200000000000002e-001	8.630054e-006
4.300000000000002e-001	8.758573e-006
4.400000000000002e-001	8.883544e-006
4.500000000000002e-001	9.004969e-006
4.600000000000002e-001	9.122853e-006
4.700000000000003e-001	9.237200e-006
4.800000000000003e-001	9.348017e-006
4.900000000000003e-001	9.455306e-006
5.000000000000002e-001	9.559077e-006
5.100000000000002e-001	9.659334e-006
5.200000000000002e-001	9.756086e-006
5.300000000000003e-001	9.849341e-006
5.400000000000003e-001	9.939110e-006
5.500000000000003e-001	1.002540e-005
5.600000000000003e-001	1.010823e-005
5.700000000000003e-001	1.018761e-005
5.800000000000003e-001	1.026356e-005
5.900000000000003e-001	1.033610e-005
6.000000000000003e-001	1.040524e-005
6.100000000000003e-001	1.047102e-005
6.200000000000003e-001	1.053346e-005
6.300000000000003e-001	1.059259e-005
6.400000000000004e-001	1.064845e-005
6.500000000000004e-001	1.070110e-005
6.600000000000004e-001	1.075056e-005
6.700000000000004e-001	1.079691e-005
6.800000000000004e-001	1.084020e-005
6.900000000000004e-001	1.088051e-005
7.000000000000004e-001	1.091793e-005
7.100000000000004e-001	1.095253e-005
7.200000000000004e-001	1.098444e-005
7.300000000000004e-001	1.101375e-005
7.400000000000004e-001	1.104059e-005
7.500000000000004e-001	1.106509e-005
7.600000000000005e-001	1.108738e-005
7.700000000000005e-001	1.110761e-005
7.800000000000005e-001	1.112593e-005
7.900000000000005e-001	1.114247e-005
8.000000000000005e-001	1.115740e-005
8.100000000000005e-001	1.117084e-005
8.200000000000005e-001	1.118294e-005
8.300000000000005e-001	1.119383e-005
8.400000000000005e-001	1.120364e-005
8.500000000000005e-001	1.121248e-005
8.600000000000005e-001	1.122045e-005
8.700000000000006e-001	1.122764e-005
8.800000000000006e-001	1.123416e-005
8.900000000000006e-001	1.124006e-005
9.000000000000006e-001	1.124543e-005
9.100000000000006e-001	1.125032e-005
9.200000000000006e-001	1.125479e-005
9.300000000000006e-001	1.125889e-005
9.400000000000006e-001	1.126265e-005
9.500000000000006e-001	1.126611e-005
9.600000000000006e-001	1.126931e-005
9.700000000000006e-001	1.127227e-005
9.800000000000007e-001	1.127503e-005
9.900000000000007e-001	1.127759e-005
1.000000000000001e+000	1.127999e-005
1.010000000000001e+000	1.128223e-005
1.020000000000001e+000	1.128433e-005
1.030000000000001e+000	1.128632e-005
1.040000000000001e+000	1.128819e-005
1.050000000000001e+000	1.128995e-005
1.060000000000001e+000	1.129163e-005
1.070000000000001e+000	1.129322e-005
1.080000000000001e+000	1.129474e-005
1.090000000000001e+000	1.129618e-005
1.100000000000001e+000	1.129756e-005
1.110000000000001e+000	1.129888e-005
1.120000000000001e+000	1.130015e-005
1.130000000000001e+000	1.130137e-005
1.140000000000001e+000	1.130254e-005
1.150000000000001e+000	1.130367e-005
1.160000000000001e+000	1.130476e-005
1.170000000000001e+000	1.130581e-005
1.180000000000001e+000	1.130683e-005
1.190000000000001e+000	1.130782e-005
1.200000000000001e+000	1.130877e-005
1.210000000000001e+000	1.130970e-005
1.220000000000001e+000	1.131061e-005
1.230000000000001e+000	1.131149e-005
1.240000000000001e+000	1.131235e-005
1.250000000000001e+000	1.131319e-005
1.260000000000001e+000	1.131401e-005
1.270000000000001e+000	1.131481e-005
1.280000000000001e+000	1.131559e-005
1.290000000000001e+000	1.131636e-005
1.300000000000001e+000	1.131711e-005
1.310000000000001e+000	1.131784e-005
1.320000000000001e+000	1.131856e-005
1.330000000000001e+000	1.131927e-005
1.340000000000001e+000	1.131997e-005
1.350000000000001e+000	1.132066e-005
1.360000000000001e+000	1.132133e-005
1.370000000000001e+000	1.132199e-005
1.380000000000001e+000	1.132265e-005
1.390000000000001e+000	1.132329e-005
1.400000000000001e+000	1.132393e-005
1.410000000000001e+000	1.132456e-005
1.420000000000001e+000	1.132518e-005
1.430000000000001e+000	1.132579e-005
1.440000000000001e+000	1.132639e-005
1.450000000000001e+000	1.132699e-005
1.460000000000001e+000	1.132758e-005
1.470000000000001e+000	1.132816e-005
1.480000000000001e+000	1.132874e-005
1.490000000000001e+000	1.132931e-005
1.500000000000001e+000	1.132988e-005
1.510000000000001e+000	1.133044e-005
1.520000000000001e+000	1.133099e-005
1.530000000000001e+000	1.133154e-005
1.540000000000001e+000	1.133209e-005
1.550000000000001e+000	1.133263e-005
1.560000000000001e+000	1.133317e-005
1.570000000000001e+000	1.133370e-005
1.580000000000001e+000	1.133423e-005
1.590000000000001e+000	1.133475e-005
1.600000000000001e+000	1.133528e-005
1.610000000000001e+000	1.133579e-005
1.620000000000001e+000	1.133631e-005
1.630000000000001e+000	1.133682e-005
1.640000000000001e+000	1.133732e-005
1.650000000000001e+000	1.133783e-005
1.660000000000001e+000	1.133833e-005
1.670000000000001e+000	1.133883e-005
1.680000000000001e+000	1.133932e-005
1.690000000000001e+000	1.133982e-005
1.700000000000001e+000	1.134031e-005
1.710000000000001e+000	1.134079e-005
1.720000000000001e+000	1.134128e-005
1.730000000000001e+000	1.134176e-005
1.740000000000001e+000	1.134224e-005
1.750000000000001e+000	1.134272e-005
1.760000000000001e+000	1.134320e-005
1.770000000000001e+000	1.134367e-005
1.780000000000001e+000	1.134414e-005
1.790000000000001e+000	1.134461e-005
1.800000000000000e+000	1.134508e-005
Step Information: Vgs=1.6  (Run: 9/10)
0.000000000000000e+000	0.000000e+000
1.000000000000000e-002	3.202416e-007
2.000000000000000e-002	6.371279e-007
3.000000000000000e-002	9.506598e-007
4.000000000000000e-002	1.260838e-006
5.000000000000000e-002	1.567663e-006
6.000000000000001e-002	1.871137e-006
7.000000000000001e-002	2.171259e-006
8.000000000000000e-002	2.468032e-006
9.000000000000000e-002	2.761455e-006
9.999999999999999e-002	3.051530e-006
1.100000000000000e-001	3.338257e-006
1.200000000000000e-001	3.621637e-006
1.300000000000000e-001	3.901672e-006
1.400000000000000e-001	4.178361e-006
1.500000000000000e-001	4.451707e-006
1.600000000000000e-001	4.721710e-006
1.700000000000000e-001	4.988370e-006
1.800000000000000e-001	5.251689e-006
1.900000000000000e-001	5.511667e-006
2.000000000000000e-001	5.768306e-006
2.100000000000001e-001	6.021607e-006
2.200000000000001e-001	6.271569e-006
2.300000000000001e-001	6.518195e-006
2.400000000000001e-001	6.761486e-006
2.500000000000001e-001	7.001441e-006
2.600000000000001e-001	7.238062e-006
2.700000000000001e-001	7.471350e-006
2.800000000000001e-001	7.701306e-006
2.900000000000001e-001	7.927932e-006
3.000000000000001e-001	8.151227e-006
3.100000000000001e-001	8.371193e-006
3.200000000000001e-001	8.587832e-006
3.300000000000001e-001	8.801143e-006
3.400000000000001e-001	9.011128e-006
3.500000000000001e-001	9.217789e-006
3.600000000000002e-001	9.421125e-006
3.700000000000002e-001	9.621140e-006
3.800000000000002e-001	9.817832e-006
3.900000000000002e-001	1.001120e-005
4.000000000000002e-001	1.020126e-005
4.100000000000002e-001	1.038799e-005
4.200000000000002e-001	1.057141e-005
4.300000000000002e-001	1.075151e-005
4.400000000000002e-001	1.092830e-005
4.500000000000002e-001	1.110178e-005
4.600000000000002e-001	1.127194e-005
4.700000000000003e-001	1.143880e-005
4.800000000000003e-001	1.160235e-005
4.900000000000003e-001	1.176259e-005
5.000000000000002e-001	1.191952e-005
5.100000000000002e-001	1.207315e-005
5.200000000000002e-001	1.222349e-005
5.300000000000003e-001	1.237052e-005
5.400000000000003e-001	1.251425e-005
5.500000000000003e-001	1.265469e-005
5.600000000000003e-001	1.279184e-005
5.700000000000003e-001	1.292570e-005
5.800000000000003e-001	1.305627e-005
5.900000000000003e-001	1.318355e-005
6.000000000000003e-001	1.330756e-005
6.100000000000003e-001	1.342829e-005
6.200000000000003e-001	1.354574e-005
6.300000000000003e-001	1.365992e-005
6.400000000000004e-001	1.377084e-005
6.500000000000004e-001	1.387850e-005
6.600000000000004e-001	1.398291e-005
6.700000000000004e-001	1.408406e-005
6.800000000000004e-001	1.418198e-005
6.900000000000004e-001	1.427666e-005
7.000000000000004e-001	1.436811e-005
7.100000000000004e-001	1.445635e-005
7.200000000000004e-001	1.454139e-005
7.300000000000004e-001	1.462323e-005
7.400000000000004e-001	1.470189e-005
7.500000000000004e-001	1.477739e-005
7.600000000000005e-001	1.484974e-005
7.700000000000005e-001	1.491897e-005
7.800000000000005e-001	1.498509e-005
7.900000000000005e-001	1.504813e-005
8.000000000000005e-001	1.510813e-005
8.100000000000005e-001	1.516511e-005
8.200000000000005e-001	1.521911e-005
8.300000000000005e-001	1.527017e-005
8.400000000000005e-001	1.531834e-005
8.500000000000005e-001	1.536368e-005
8.600000000000005e-001	1.540625e-005
8.700000000000006e-001	1.544610e-005
8.800000000000006e-001	1.548333e-005
8.900000000000006e-001	1.551800e-005
9.000000000000006e-001	1.555021e-005
9.100000000000006e-001	1.558006e-005
9.200000000000006e-001	1.560764e-005
9.300000000000006e-001	1.563307e-005
9.400000000000006e-001	1.565646e-005
9.500000000000006e-001	1.567793e-005
9.600000000000006e-001	1.569760e-005
9.700000000000006e-001	1.571560e-005
9.800000000000007e-001	1.573204e-005
9.900000000000007e-001	1.574705e-005
1.000000000000001e+000	1.576074e-005
1.010000000000001e+000	1.577323e-005
1.020000000000001e+000	1.578462e-005
1.030000000000001e+000	1.579502e-005
1.040000000000001e+000	1.580451e-005
1.050000000000001e+000	1.581319e-005
1.060000000000001e+000	1.582113e-005
1.070000000000001e+000	1.582841e-005
1.080000000000001e+000	1.583509e-005
1.090000000000001e+000	1.584124e-005
1.100000000000001e+000	1.584691e-005
1.110000000000001e+000	1.585214e-005
1.120000000000001e+000	1.585698e-005
1.130000000000001e+000	1.586147e-005
1.140000000000001e+000	1.586565e-005
1.150000000000001e+000	1.586954e-005
1.160000000000001e+000	1.587317e-005
1.170000000000001e+000	1.587657e-005
1.180000000000001e+000	1.587976e-005
1.190000000000001e+000	1.588276e-005
1.200000000000001e+000	1.588558e-005
1.210000000000001e+000	1.588824e-005
1.220000000000001e+000	1.589076e-005
1.230000000000001e+000	1.589315e-005
1.240000000000001e+000	1.589542e-005
1.250000000000001e+000	1.589757e-005
1.260000000000001e+000	1.589963e-005
1.270000000000001e+000	1.590159e-005
1.280000000000001e+000	1.590346e-005
1.290000000000001e+000	1.590526e-005
1.300000000000001e+000	1.590698e-005
1.310000000000001e+000	1.590863e-005
1.320000000000001e+000	1.591023e-005
1.330000000000001e+000	1.591176e-005
1.340000000000001e+000	1.591324e-005
1.350000000000001e+000	1.591467e-005
1.360000000000001e+000	1.591605e-005
1.370000000000001e+000	1.591739e-005
1.380000000000001e+000	1.591869e-005
1.390000000000001e+000	1.591995e-005
1.400000000000001e+000	1.592117e-005
1.410000000000001e+000	1.592236e-005
1.420000000000001e+000	1.592352e-005
1.430000000000001e+000	1.592465e-005
1.440000000000001e+000	1.592575e-005
1.450000000000001e+000	1.592683e-005
1.460000000000001e+000	1.592788e-005
1.470000000000001e+000	1.592890e-005
1.480000000000001e+000	1.592991e-005
1.490000000000001e+000	1.593090e-005
1.500000000000001e+000	1.593186e-005
1.510000000000001e+000	1.593281e-005
1.520000000000001e+000	1.593374e-005
1.530000000000001e+000	1.593465e-005
1.540000000000001e+000	1.593554e-005
1.550000000000001e+000	1.593643e-005
1.560000000000001e+000	1.593729e-005
1.570000000000001e+000	1.593815e-005
1.580000000000001e+000	1.593899e-005
1.590000000000001e+000	1.593981e-005
1.600000000000001e+000	1.594063e-005
1.610000000000001e+000	1.594143e-005
1.620000000000001e+000	1.594223e-005
1.630000000000001e+000	1.594301e-005
1.640000000000001e+000	1.594378e-005
1.650000000000001e+000	1.594455e-005
1.660000000000001e+000	1.594530e-005
1.670000000000001e+000	1.594605e-005
1.680000000000001e+000	1.594679e-005
1.690000000000001e+000	1.594752e-005
1.700000000000001e+000	1.594824e-005
1.710000000000001e+000	1.594896e-005
1.720000000000001e+000	1.594967e-005
1.730000000000001e+000	1.595037e-005
1.740000000000001e+000	1.595106e-005
1.750000000000001e+000	1.595175e-005
1.760000000000001e+000	1.595244e-005
1.770000000000001e+000	1.595311e-005
1.780000000000001e+000	1.595378e-005
1.790000000000001e+000	1.595445e-005
1.800000000000000e+000	1.595511e-005
Step Information: Vgs=1.8  (Run: 10/10)
0.000000000000000e+000	0.000000e+000
1.000000000000000e-002	3.534849e-007
2.000000000000000e-002	7.038996e-007
3.000000000000000e-002	1.051245e-006
4.000000000000000e-002	1.395521e-006
5.000000000000000e-002	1.736730e-006
6.000000000000001e-002	2.074871e-006
7.000000000000001e-002	2.409945e-006
8.000000000000000e-002	2.741954e-006
9.000000000000000e-002	3.070898e-006
9.999999999999999e-002	3.396777e-006
1.100000000000000e-001	3.719592e-006
1.200000000000000e-001	4.039345e-006
1.300000000000000e-001	4.356035e-006
1.400000000000000e-001	4.669663e-006
1.500000000000000e-001	4.980231e-006
1.600000000000000e-001	5.287739e-006
1.700000000000000e-001	5.592187e-006
1.800000000000000e-001	5.893577e-006
1.900000000000000e-001	6.191909e-006
2.000000000000000e-001	6.487184e-006
2.100000000000001e-001	6.779402e-006
2.200000000000001e-001	7.068565e-006
2.300000000000001e-001	7.354673e-006
2.400000000000001e-001	7.637726e-006
2.500000000000001e-001	7.917727e-006
2.600000000000001e-001	8.194675e-006
2.700000000000001e-001	8.468570e-006
2.800000000000001e-001	8.739415e-006
2.900000000000001e-001	9.007208e-006
3.000000000000001e-001	9.271953e-006
3.100000000000001e-001	9.533648e-006
3.200000000000001e-001	9.792296e-006
3.300000000000001e-001	1.004790e-005
3.400000000000001e-001	1.030045e-005
3.500000000000001e-001	1.054996e-005
3.600000000000002e-001	1.079642e-005
3.700000000000002e-001	1.103984e-005
3.800000000000002e-001	1.128021e-005
3.900000000000002e-001	1.151754e-005
4.000000000000002e-001	1.175183e-005
4.100000000000002e-001	1.198308e-005
4.200000000000002e-001	1.221129e-005
4.300000000000002e-001	1.243646e-005
4.400000000000002e-001	1.265859e-005
4.500000000000002e-001	1.287769e-005
4.600000000000002e-001	1.309375e-005
4.700000000000003e-001	1.330677e-005
4.800000000000003e-001	1.351675e-005
4.900000000000003e-001	1.372370e-005
5.000000000000002e-001	1.392762e-005
5.100000000000002e-001	1.412851e-005
5.200000000000002e-001	1.432636e-005
5.300000000000003e-001	1.452119e-005
5.400000000000003e-001	1.471298e-005
5.500000000000003e-001	1.490175e-005
5.600000000000003e-001	1.508749e-005
5.700000000000003e-001	1.527020e-005
5.800000000000003e-001	1.544989e-005
5.900000000000003e-001	1.562655e-005
6.000000000000003e-001	1.580019e-005
6.100000000000003e-001	1.597081e-005
6.200000000000003e-001	1.613841e-005
6.300000000000003e-001	1.630299e-005
6.400000000000004e-001	1.646455e-005
6.500000000000004e-001	1.662309e-005
6.600000000000004e-001	1.677862e-005
6.700000000000004e-001	1.693114e-005
6.800000000000004e-001	1.708064e-005
6.900000000000004e-001	1.722713e-005
7.000000000000004e-001	1.737062e-005
7.100000000000004e-001	1.751109e-005
7.200000000000004e-001	1.764857e-005
7.300000000000004e-001	1.778304e-005
7.400000000000004e-001	1.791450e-005
7.500000000000004e-001	1.804298e-005
7.600000000000005e-001	1.816845e-005
7.700000000000005e-001	1.829093e-005
7.800000000000005e-001	1.841043e-005
7.900000000000005e-001	1.852693e-005
8.000000000000005e-001	1.864046e-005
8.100000000000005e-001	1.875100e-005
8.200000000000005e-001	1.885857e-005
8.300000000000005e-001	1.896317e-005
8.400000000000005e-001	1.906481e-005
8.500000000000005e-001	1.916348e-005
8.600000000000005e-001	1.925920e-005
8.700000000000006e-001	1.935198e-005
8.800000000000006e-001	1.944181e-005
8.900000000000006e-001	1.952872e-005
9.000000000000006e-001	1.961270e-005
9.100000000000006e-001	1.969378e-005
9.200000000000006e-001	1.977195e-005
9.300000000000006e-001	1.984724e-005
9.400000000000006e-001	1.991966e-005
9.500000000000006e-001	1.998923e-005
9.600000000000006e-001	2.005596e-005
9.700000000000006e-001	2.011988e-005
9.800000000000007e-001	2.018100e-005
9.900000000000007e-001	2.023937e-005
1.000000000000001e+000	2.029500e-005
1.010000000000001e+000	2.034793e-005
1.020000000000001e+000	2.039820e-005
1.030000000000001e+000	2.044585e-005
1.040000000000001e+000	2.049093e-005
1.050000000000001e+000	2.053349e-005
1.060000000000001e+000	2.057358e-005
1.070000000000001e+000	2.061127e-005
1.080000000000001e+000	2.064663e-005
1.090000000000001e+000	2.067973e-005
1.100000000000001e+000	2.071066e-005
1.110000000000001e+000	2.073948e-005
1.120000000000001e+000	2.076631e-005
1.130000000000001e+000	2.079122e-005
1.140000000000001e+000	2.081432e-005
1.150000000000001e+000	2.083570e-005
1.160000000000001e+000	2.085547e-005
1.170000000000001e+000	2.087373e-005
1.180000000000001e+000	2.089058e-005
1.190000000000001e+000	2.090612e-005
1.200000000000001e+000	2.092045e-005
1.210000000000001e+000	2.093365e-005
1.220000000000001e+000	2.094582e-005
1.230000000000001e+000	2.095705e-005
1.240000000000001e+000	2.096741e-005
1.250000000000001e+000	2.097697e-005
1.260000000000001e+000	2.098582e-005
1.270000000000001e+000	2.099400e-005
1.280000000000001e+000	2.100159e-005
1.290000000000001e+000	2.100863e-005
1.300000000000001e+000	2.101517e-005
1.310000000000001e+000	2.102126e-005
1.320000000000001e+000	2.102694e-005
1.330000000000001e+000	2.103225e-005
1.340000000000001e+000	2.103721e-005
1.350000000000001e+000	2.104187e-005
1.360000000000001e+000	2.104624e-005
1.370000000000001e+000	2.105035e-005
1.380000000000001e+000	2.105423e-005
1.390000000000001e+000	2.105789e-005
1.400000000000001e+000	2.106136e-005
1.410000000000001e+000	2.106464e-005
1.420000000000001e+000	2.106775e-005
1.430000000000001e+000	2.107071e-005
1.440000000000001e+000	2.107353e-005
1.450000000000001e+000	2.107622e-005
1.460000000000001e+000	2.107879e-005
1.470000000000001e+000	2.108124e-005
1.480000000000001e+000	2.108360e-005
1.490000000000001e+000	2.108586e-005
1.500000000000001e+000	2.108802e-005
1.510000000000001e+000	2.109011e-005
1.520000000000001e+000	2.109212e-005
1.530000000000001e+000	2.109406e-005
1.540000000000001e+000	2.109593e-005
1.550000000000001e+000	2.109774e-005
1.560000000000001e+000	2.109949e-005
1.570000000000001e+000	2.110118e-005
1.580000000000001e+000	2.110283e-005
1.590000000000001e+000	2.110442e-005
1.600000000000001e+000	2.110597e-005
1.610000000000001e+000	2.110748e-005
1.620000000000001e+000	2.110895e-005
1.630000000000001e+000	2.111038e-005
1.640000000000001e+000	2.111178e-005
1.650000000000001e+000	2.111314e-005
1.660000000000001e+000	2.111447e-005
1.670000000000001e+000	2.111577e-005
1.680000000000001e+000	2.111704e-005
1.690000000000001e+000	2.111828e-005
1.700000000000001e+000	2.111950e-005
1.710000000000001e+000	2.112070e-005
1.720000000000001e+000	2.112187e-005
1.730000000000001e+000	2.112302e-005
1.740000000000001e+000	2.112415e-005
1.750000000000001e+000	2.112525e-005
1.760000000000001e+000	2.112635e-005
1.770000000000001e+000	2.112742e-005
1.780000000000001e+000	2.112847e-005
1.790000000000001e+000	2.112951e-005
1.800000000000000e+000	2.113053e-005
